<svg width="88" height="90" viewBox="0 0 88 90" fill="none" xmlns="http://www.w3.org/2000/svg">
<path d="M87.5293 36.0395C87.5705 35.8719 87.5835 35.6962 87.5595 35.519C87.3398 33.9205 87.0205 32.3233 86.6112 30.7708C86.6078 30.7543 86.6037 30.7379 86.5995 30.7214C86.5989 30.718 86.5975 30.7145 86.5968 30.7111C86.5961 30.7083 86.5954 30.7056 86.5947 30.7028C86.5941 30.7001 86.5934 30.698 86.5927 30.6953C86.5927 30.6946 86.5927 30.6939 86.5927 30.6939C84.4682 22.0847 79.4529 14.2906 72.4697 8.74517C65.264 3.024 56.582 0 47.3623 0C36.571 0 26.425 4.2023 18.7943 11.833C11.2363 19.391 7.04365 29.4174 6.96469 40.0955L2.8853 42.7968C1.07804 43.9929 0 46.0021 0 48.1712C0 49.4367 0.370104 50.6658 1.07117 51.726C2.0263 53.1673 3.46552 54.097 5.03314 54.4479C4.55386 55.3591 4.29225 56.3856 4.29225 57.4513C4.29225 58.7175 4.66304 59.9466 5.36411 61.0033C6.31718 62.4432 7.75777 63.3736 9.32676 63.7252C8.84679 64.6371 8.58518 65.6643 8.58518 66.7307C8.58518 67.9955 8.95528 69.2239 9.65635 70.2834C10.6101 71.7226 12.0507 72.6523 13.619 73.0032C13.1397 73.9144 12.8774 74.9416 12.8774 76.0073C12.8774 77.2742 13.2496 78.5033 13.9513 79.5614C14.9017 80.9958 16.3532 81.9743 18.0397 82.3169C18.4709 82.4041 18.9048 82.4474 19.3354 82.4474C20.5864 82.4474 21.8114 82.0814 22.8785 81.3748L29.7958 76.7942C30.4914 77.1313 31.2007 77.4499 31.9114 77.7438C34.4025 78.7766 37.0042 79.5538 39.6533 80.0654C40.9429 82.1535 42.4851 84.0795 44.2511 85.7914L46.9037 88.3629C47.9954 89.4189 49.4305 89.9998 50.946 89.9998C52.0865 89.9998 53.1941 89.6661 54.1499 89.0337C55.7772 87.9557 56.7495 86.1457 56.7495 84.1922C56.7495 83.0489 56.4151 81.9413 55.7841 80.9917C55.5795 80.6813 55.3872 80.362 55.2032 80.0393C67.7242 77.5811 78.3543 69.3489 83.8797 57.7143C84.2086 57.0214 83.9141 56.1926 83.2212 55.8637C82.5284 55.5348 81.6996 55.8294 81.3707 56.5222C76.1254 67.567 65.9451 75.3213 53.994 77.4431C52.8597 74.3429 52.6379 70.9254 53.3843 67.705L56.7701 53.0753C57.3023 53.6445 57.9937 54.0366 58.7724 54.1952C59.0271 54.2467 59.2826 54.2728 59.5366 54.2728C60.272 54.2728 60.9916 54.0572 61.6186 53.6417L84.9248 38.2059C84.9674 38.9365 84.9894 39.6698 84.9894 40.4025C84.9894 43.8748 84.5163 47.3143 83.5845 50.6239C83.3764 51.3621 83.8063 52.1291 84.5444 52.3371C84.6708 52.3728 84.7971 52.3893 84.9221 52.3893C85.5284 52.3893 86.0853 51.9897 86.2583 51.3772C87.2594 47.8224 87.7669 44.1303 87.7669 40.4025C87.7669 38.942 87.6845 37.4766 87.5293 36.0395ZM70.8217 44.2154L50.8196 14.3846L62.6005 6.5836C73.0389 11.1532 80.9711 20.3681 83.8983 31.3723C83.899 31.3758 83.9003 31.3799 83.901 31.3833C83.9031 31.3922 83.9044 31.4005 83.9065 31.4087C84.2038 32.6165 84.438 33.8477 84.6117 35.0823L70.8217 44.2154ZM32.5252 74.9869L36.2318 72.5322L37.0674 74.7837C37.3242 75.4751 37.6085 76.1577 37.9168 76.8299C36.2331 76.3946 34.579 75.8432 32.9743 75.1778C32.8246 75.116 32.6749 75.0508 32.5252 74.9869ZM50.6775 67.0788C49.7169 71.2262 50.1316 75.6571 51.8462 79.5538C51.8468 79.5545 51.8468 79.5552 51.8475 79.5566C51.8503 79.5635 51.8537 79.5703 51.8571 79.5772C52.3069 80.5955 52.848 81.587 53.468 82.5263C53.7976 83.0221 53.9713 83.5982 53.9713 84.1928C53.9713 85.2118 53.4646 86.156 52.6159 86.7183C52.1174 87.0479 51.5392 87.223 50.9453 87.223C50.1549 87.223 49.4058 86.9188 48.8359 86.3681L46.1847 83.798C44.4448 82.1109 42.941 80.1979 41.7146 78.1133C41.7037 78.0947 41.692 78.0762 41.681 78.0583C40.8927 76.7111 40.2171 75.2843 39.6712 73.8169L38.2272 69.9243C37.96 69.2053 37.1615 68.8387 36.4419 69.1051C36.4268 69.1106 36.413 69.1181 36.3986 69.1236C36.3512 69.1367 36.2874 69.1683 36.2036 69.2211C36.194 69.2266 36.1851 69.2328 36.1754 69.2383C36.1693 69.2424 36.1645 69.2452 36.1576 69.2493L21.3445 79.0595C20.5288 79.5992 19.5517 79.79 18.5924 79.595C17.6332 79.4 16.8078 78.8438 16.2667 78.0267C15.8664 77.4245 15.6556 76.7262 15.6556 76.008C15.6556 74.7741 16.2695 73.6301 17.2981 72.949L18.5629 72.1126C18.5629 72.1119 18.5636 72.1119 18.5643 72.1112C18.5711 72.1064 18.5787 72.1016 18.5855 72.0968L21.4544 70.1969C22.0936 69.7732 22.2687 68.9115 21.8451 68.2722C21.4214 67.6329 20.5597 67.4578 19.9204 67.8808L17.0323 69.7938C15.3494 70.8918 13.082 70.4248 11.9731 68.7501C11.5742 68.1472 11.3627 67.4496 11.3627 66.732C11.3627 65.4961 11.9772 64.3521 13.0058 63.6716L17.1607 60.9195C17.8 60.4966 17.9765 59.6355 17.5535 58.9949C17.1305 58.3556 16.2688 58.1798 15.6288 58.6021L12.7422 60.5137C11.0592 61.6137 8.7898 61.1468 7.68017 59.4693C7.28123 58.8678 7.07043 58.1702 7.07043 57.452C7.07043 56.2167 7.68361 55.0734 8.71221 54.3923L12.8678 51.6395C13.5078 51.2165 13.6836 50.3554 13.2606 49.7155C12.8383 49.0755 11.9759 48.8997 11.3359 49.3227L8.46433 51.2227C6.78066 52.3378 4.50305 51.8757 3.38793 50.192C2.9883 49.5891 2.7775 48.8901 2.7775 48.1712C2.7775 46.9366 3.39136 45.7933 4.41859 45.1129L14.5041 38.4345C15.1441 38.0109 15.3192 37.1491 14.8955 36.5092C14.4718 35.8699 13.6094 35.6948 12.9708 36.1185L9.80398 38.2148C10.9411 18.4832 27.3513 2.7775 47.3623 2.7775C51.7569 2.7775 56.0189 3.51702 60.0338 4.95143L38.7188 19.0662C36.9802 20.2211 36.5023 22.5757 37.6538 24.3156L37.7774 24.5024L35.955 25.7109C34.9333 26.3859 33.7481 26.7436 32.528 26.7436C32.1977 26.7436 31.8681 26.7168 31.5447 26.6647C29.3144 26.3069 27.0485 26.7965 25.163 28.0448L17.9277 32.8363C17.2885 33.2599 17.1134 34.121 17.537 34.7609C17.8041 35.1647 18.2457 35.383 18.6961 35.383C18.9598 35.383 19.2255 35.3082 19.4617 35.1523L26.6969 30.3609C27.9995 29.4991 29.5651 29.1606 31.1025 29.4071C31.5701 29.4827 32.0494 29.5211 32.528 29.5211C34.2947 29.5211 36.0093 29.0048 37.4883 28.027L39.3114 26.8192L54.6395 49.9627L50.6775 67.0788ZM60.0839 51.3271C59.86 51.4754 59.5909 51.5276 59.3272 51.4733C59.0622 51.4198 58.8349 51.2659 58.6852 51.04L40.8639 24.1316C40.8625 24.1296 40.8618 24.1275 40.8605 24.1261C40.8591 24.1241 40.8577 24.1227 40.8563 24.1206L39.9699 22.7823C39.6629 22.3182 39.7913 21.6885 40.2541 21.3809L48.5035 15.9186L68.5057 45.7494L60.0839 51.3271Z" fill="#F20000"/>
</svg>
